[
    {
        "page": 1, 
        "pages": 12, 
        "per_page": "10", 
        "total": 116
    }, 
    [
        {
            "country": {
                "id": "", 
                "value": "Africa"
            }, 
            "date": "2010", 
            "decimal": "0", 
            "indicator": {
                "id": "BM.AG.FRST.CD", 
                "value": "Forest products imports (FAO, current US$)"
            }, 
            "value": null
        }, 
        {
            "country": {
                "id": "", 
                "value": "Africa"
            }, 
            "date": "2009", 
            "decimal": "0", 
            "indicator": {
                "id": "BM.AG.FRST.CD", 
                "value": "Forest products imports (FAO, current US$)"
            }, 
            "value": null
        }, 
        {
            "country": {
                "id": "DZ", 
                "value": "Algeria"
            }, 
            "date": "2010", 
            "decimal": "0", 
            "indicator": {
                "id": "BM.AG.FRST.CD", 
                "value": "Forest products imports (FAO, current US$)"
            }, 
            "value": null
        }, 
        {
            "country": {
                "id": "DZ", 
                "value": "Algeria"
            }, 
            "date": "2009", 
            "decimal": "0", 
            "indicator": {
                "id": "BM.AG.FRST.CD", 
                "value": "Forest products imports (FAO, current US$)"
            }, 
            "value": null
        }, 
        {
            "country": {
                "id": "AO", 
                "value": "Angola"
            }, 
            "date": "2010", 
            "decimal": "0", 
            "indicator": {
                "id": "BM.AG.FRST.CD", 
                "value": "Forest products imports (FAO, current US$)"
            }, 
            "value": null
        }, 
        {
            "country": {
                "id": "AO", 
                "value": "Angola"
            }, 
            "date": "2009", 
            "decimal": "0", 
            "indicator": {
                "id": "BM.AG.FRST.CD", 
                "value": "Forest products imports (FAO, current US$)"
            }, 
            "value": null
        }, 
        {
            "country": {
                "id": "BJ", 
                "value": "Benin"
            }, 
            "date": "2010", 
            "decimal": "0", 
            "indicator": {
                "id": "BM.AG.FRST.CD", 
                "value": "Forest products imports (FAO, current US$)"
            }, 
            "value": null
        }, 
        {
            "country": {
                "id": "BJ", 
                "value": "Benin"
            }, 
            "date": "2009", 
            "decimal": "0", 
            "indicator": {
                "id": "BM.AG.FRST.CD", 
                "value": "Forest products imports (FAO, current US$)"
            }, 
            "value": null
        }, 
        {
            "country": {
                "id": "BW", 
                "value": "Botswana"
            }, 
            "date": "2010", 
            "decimal": "0", 
            "indicator": {
                "id": "BM.AG.FRST.CD", 
                "value": "Forest products imports (FAO, current US$)"
            }, 
            "value": null
        }, 
        {
            "country": {
                "id": "BW", 
                "value": "Botswana"
            }, 
            "date": "2009", 
            "decimal": "0", 
            "indicator": {
                "id": "BM.AG.FRST.CD", 
                "value": "Forest products imports (FAO, current US$)"
            }, 
            "value": null
        }
    ]
]