[{"page":1,"pages":12,"per_page":"10","total":116},[{"indicator":{"id":"BM.AG.FRST.CD","value":"Forest products imports (FAO, current US$)"},"country":{"id":"","value":"Africa"},"value":null,"decimal":"0","date":"2010"},{"indicator":{"id":"BM.AG.FRST.CD","value":"Forest products imports (FAO, current US$)"},"country":{"id":"","value":"Africa"},"value":null,"decimal":"0","date":"2009"},{"indicator":{"id":"BM.AG.FRST.CD","value":"Forest products imports (FAO, current US$)"},"country":{"id":"DZ","value":"Algeria"},"value":null,"decimal":"0","date":"2010"},{"indicator":{"id":"BM.AG.FRST.CD","value":"Forest products imports (FAO, current US$)"},"country":{"id":"DZ","value":"Algeria"},"value":null,"decimal":"0","date":"2009"},{"indicator":{"id":"BM.AG.FRST.CD","value":"Forest products imports (FAO, current US$)"},"country":{"id":"AO","value":"Angola"},"value":null,"decimal":"0","date":"2010"},{"indicator":{"id":"BM.AG.FRST.CD","value":"Forest products imports (FAO, current US$)"},"country":{"id":"AO","value":"Angola"},"value":null,"decimal":"0","date":"2009"},{"indicator":{"id":"BM.AG.FRST.CD","value":"Forest products imports (FAO, current US$)"},"country":{"id":"BJ","value":"Benin"},"value":null,"decimal":"0","date":"2010"},{"indicator":{"id":"BM.AG.FRST.CD","value":"Forest products imports (FAO, current US$)"},"country":{"id":"BJ","value":"Benin"},"value":null,"decimal":"0","date":"2009"},{"indicator":{"id":"BM.AG.FRST.CD","value":"Forest products imports (FAO, current US$)"},"country":{"id":"BW","value":"Botswana"},"value":null,"decimal":"0","date":"2010"},{"indicator":{"id":"BM.AG.FRST.CD","value":"Forest products imports (FAO, current US$)"},"country":{"id":"BW","value":"Botswana"},"value":null,"decimal":"0","date":"2009"}]]
